…
### Get word matrices

Get [Tidytext](https://juliasilge.github.io/tidytext/)-style word
matrices associated with those stories with `get_word_matrices()`. This
uses the same arguments as `search_stories()`, but is most useful to
obtain word matrices for stories found with `search_stories()`:

``` r
wm <- get_word_matrices(stories_id = stories$stories_id)
wm
#> # A tibble: 290 x 4
#>    stories_id word_counts word_stem       full_word      
#>    <chr>            <int> <chr>           <chr>          
#>  1 1922328226           1 ein             eine           
#>  2 1922328226           1 parodi          parodie        
#>  3 1922328226           1 derzeit         derzeit        
#>  4 1922328226           1 las             las            
#>  5 1922328226           1 kryptowährungen kryptowährungen
#>  6 1922328226           1 sotschi         sotschi        
#>  7 1922328226           2 euro            euro           
#>  8 1922328226           1 überzeugt       überzeugt      
#>  9 1922328226           1 szene           szene          
#> 10 1922328226           1 passiert        passiert       
#> # ... with 280 more rows
```
…
